(['G:\\Programming\\Projects\\QtStatisticCalculator\\akAnalizator.py'],
 ['G:\\Programming\\Projects\\QtStatisticCalculator',
  'G:\\Programming\\Projects\\QtStatisticCalculator'],
 ['codecs'],
 [],
 [],
 [],
 False,
 False,
 '3.6.6 (v3.6.6:4cf1f54eb7, Jun 27 2018, 03:37:03) [MSC v.1900 64 bit (AMD64)]',
 [('pyi_rth_qt5',
   'G:\\Programming\\WPy-3662\\python-3.6.6.amd64\\lib\\site-packages\\PyInstaller\\loader\\rthooks\\pyi_rth_qt5.py',
   'PYSOURCE'),
  ('akAnalizator',
   'G:\\Programming\\Projects\\QtStatisticCalculator\\akAnalizator.py',
   'PYSOURCE')],
 [('ntpath',
   'G:\\Programming\\WPy-3662\\python-3.6.6.amd64\\lib\\ntpath.py',
   'PYMODULE'),
  ('_strptime',
   'G:\\Programming\\WPy-3662\\python-3.6.6.amd64\\lib\\_strptime.py',
   'PYMODULE'),
  ('datetime',
   'G:\\Programming\\WPy-3662\\python-3.6.6.amd64\\lib\\datetime.py',
   'PYMODULE'),
  ('_compat_pickle',
   'G:\\Programming\\WPy-3662\\python-3.6.6.amd64\\lib\\_compat_pickle.py',
   'PYMODULE'),
  ('pickle',
   'G:\\Programming\\WPy-3662\\python-3.6.6.amd64\\lib\\pickle.py',
   'PYMODULE'),
  ('tracemalloc',
   'G:\\Programming\\WPy-3662\\python-3.6.6.amd64\\lib\\tracemalloc.py',
   'PYMODULE'),
  ('stringprep',
   'G:\\Programming\\WPy-3662\\python-3.6.6.amd64\\lib\\stringprep.py',
   'PYMODULE'),
  ('__future__',
   'G:\\Programming\\WPy-3662\\python-3.6.6.amd64\\lib\\__future__.py',
   'PYMODULE'),
  ('argparse',
   'G:\\Programming\\WPy-3662\\python-3.6.6.amd64\\lib\\argparse.py',
   'PYMODULE'),
  ('difflib',
   'G:\\Programming\\WPy-3662\\python-3.6.6.amd64\\lib\\difflib.py',
   'PYMODULE'),
  ('ast',
   'G:\\Programming\\WPy-3662\\python-3.6.6.amd64\\lib\\ast.py',
   'PYMODULE'),
  ('inspect',
   'G:\\Programming\\WPy-3662\\python-3.6.6.amd64\\lib\\inspect.py',
   'PYMODULE'),
  ('cmd',
   'G:\\Programming\\WPy-3662\\python-3.6.6.amd64\\lib\\cmd.py',
   'PYMODULE'),
  ('bdb',
   'G:\\Programming\\WPy-3662\\python-3.6.6.amd64\\lib\\bdb.py',
   'PYMODULE'),
  ('opcode',
   'G:\\Programming\\WPy-3662\\python-3.6.6.amd64\\lib\\opcode.py',
   'PYMODULE'),
  ('dis',
   'G:\\Programming\\WPy-3662\\python-3.6.6.amd64\\lib\\dis.py',
   'PYMODULE'),
  ('codeop',
   'G:\\Programming\\WPy-3662\\python-3.6.6.amd64\\lib\\codeop.py',
   'PYMODULE'),
  ('code',
   'G:\\Programming\\WPy-3662\\python-3.6.6.amd64\\lib\\code.py',
   'PYMODULE'),
  ('glob',
   'G:\\Programming\\WPy-3662\\python-3.6.6.amd64\\lib\\glob.py',
   'PYMODULE'),
  ('shlex',
   'G:\\Programming\\WPy-3662\\python-3.6.6.amd64\\lib\\shlex.py',
   'PYMODULE'),
  ('importlib._bootstrap',
   'G:\\Programming\\WPy-3662\\python-3.6.6.amd64\\lib\\importlib\\_bootstrap.py',
   'PYMODULE'),
  ('importlib._bootstrap_external',
   'G:\\Programming\\WPy-3662\\python-3.6.6.amd64\\lib\\importlib\\_bootstrap_external.py',
   'PYMODULE'),
  ('importlib.machinery',
   'G:\\Programming\\WPy-3662\\python-3.6.6.amd64\\lib\\importlib\\machinery.py',
   'PYMODULE'),
  ('importlib.util',
   'G:\\Programming\\WPy-3662\\python-3.6.6.amd64\\lib\\importlib\\util.py',
   'PYMODULE'),
  ('importlib.abc',
   'G:\\Programming\\WPy-3662\\python-3.6.6.amd64\\lib\\importlib\\abc.py',
   'PYMODULE'),
  ('importlib',
   'G:\\Programming\\WPy-3662\\python-3.6.6.amd64\\lib\\importlib\\__init__.py',
   'PYMODULE'),
  ('pkgutil',
   'G:\\Programming\\WPy-3662\\python-3.6.6.amd64\\lib\\pkgutil.py',
   'PYMODULE'),
  ('xml',
   'G:\\Programming\\WPy-3662\\python-3.6.6.amd64\\lib\\xml\\__init__.py',
   'PYMODULE'),
  ('xml.sax.expatreader',
   'G:\\Programming\\WPy-3662\\python-3.6.6.amd64\\lib\\xml\\sax\\expatreader.py',
   'PYMODULE'),
  ('xml.sax.saxutils',
   'G:\\Programming\\WPy-3662\\python-3.6.6.amd64\\lib\\xml\\sax\\saxutils.py',
   'PYMODULE'),
  ('urllib.request',
   'G:\\Programming\\WPy-3662\\python-3.6.6.amd64\\lib\\urllib\\request.py',
   'PYMODULE'),
  ('getpass',
   'G:\\Programming\\WPy-3662\\python-3.6.6.amd64\\lib\\getpass.py',
   'PYMODULE'),
  ('nturl2path',
   'G:\\Programming\\WPy-3662\\python-3.6.6.amd64\\lib\\nturl2path.py',
   'PYMODULE'),
  ('ftplib',
   'G:\\Programming\\WPy-3662\\python-3.6.6.amd64\\lib\\ftplib.py',
   'PYMODULE'),
  ('netrc',
   'G:\\Programming\\WPy-3662\\python-3.6.6.amd64\\lib\\netrc.py',
   'PYMODULE'),
  ('http.cookiejar',
   'G:\\Programming\\WPy-3662\\python-3.6.6.amd64\\lib\\http\\cookiejar.py',
   'PYMODULE'),
  ('urllib.response',
   'G:\\Programming\\WPy-3662\\python-3.6.6.amd64\\lib\\urllib\\response.py',
   'PYMODULE'),
  ('urllib.error',
   'G:\\Programming\\WPy-3662\\python-3.6.6.amd64\\lib\\urllib\\error.py',
   'PYMODULE'),
  ('xml.sax',
   'G:\\Programming\\WPy-3662\\python-3.6.6.amd64\\lib\\xml\\sax\\__init__.py',
   'PYMODULE'),
  ('xml.sax.handler',
   'G:\\Programming\\WPy-3662\\python-3.6.6.amd64\\lib\\xml\\sax\\handler.py',
   'PYMODULE'),
  ('xml.sax._exceptions',
   'G:\\Programming\\WPy-3662\\python-3.6.6.amd64\\lib\\xml\\sax\\_exceptions.py',
   'PYMODULE'),
  ('xml.sax.xmlreader',
   'G:\\Programming\\WPy-3662\\python-3.6.6.amd64\\lib\\xml\\sax\\xmlreader.py',
   'PYMODULE'),
  ('xml.parsers',
   'G:\\Programming\\WPy-3662\\python-3.6.6.amd64\\lib\\xml\\parsers\\__init__.py',
   'PYMODULE'),
  ('xml.parsers.expat',
   'G:\\Programming\\WPy-3662\\python-3.6.6.amd64\\lib\\xml\\parsers\\expat.py',
   'PYMODULE'),
  ('plistlib',
   'G:\\Programming\\WPy-3662\\python-3.6.6.amd64\\lib\\plistlib.py',
   'PYMODULE'),
  ('platform',
   'G:\\Programming\\WPy-3662\\python-3.6.6.amd64\\lib\\platform.py',
   'PYMODULE'),
  ('token',
   'G:\\Programming\\WPy-3662\\python-3.6.6.amd64\\lib\\token.py',
   'PYMODULE'),
  ('tokenize',
   'G:\\Programming\\WPy-3662\\python-3.6.6.amd64\\lib\\tokenize.py',
   'PYMODULE'),
  ('urllib.parse',
   'G:\\Programming\\WPy-3662\\python-3.6.6.amd64\\lib\\urllib\\parse.py',
   'PYMODULE'),
  ('tempfile',
   'G:\\Programming\\WPy-3662\\python-3.6.6.amd64\\lib\\tempfile.py',
   'PYMODULE'),
  ('tty',
   'G:\\Programming\\WPy-3662\\python-3.6.6.amd64\\lib\\tty.py',
   'PYMODULE'),
  ('pydoc_data',
   'G:\\Programming\\WPy-3662\\python-3.6.6.amd64\\lib\\pydoc_data\\__init__.py',
   'PYMODULE'),
  ('pydoc_data.topics',
   'G:\\Programming\\WPy-3662\\python-3.6.6.amd64\\lib\\pydoc_data\\topics.py',
   'PYMODULE'),
  ('textwrap',
   'G:\\Programming\\WPy-3662\\python-3.6.6.amd64\\lib\\textwrap.py',
   'PYMODULE'),
  ('html.entities',
   'G:\\Programming\\WPy-3662\\python-3.6.6.amd64\\lib\\html\\entities.py',
   'PYMODULE'),
  ('html',
   'G:\\Programming\\WPy-3662\\python-3.6.6.amd64\\lib\\html\\__init__.py',
   'PYMODULE'),
  ('ipaddress',
   'G:\\Programming\\WPy-3662\\python-3.6.6.amd64\\lib\\ipaddress.py',
   'PYMODULE'),
  ('ssl',
   'G:\\Programming\\WPy-3662\\python-3.6.6.amd64\\lib\\ssl.py',
   'PYMODULE'),
  ('http.client',
   'G:\\Programming\\WPy-3662\\python-3.6.6.amd64\\lib\\http\\client.py',
   'PYMODULE'),
  ('mimetypes',
   'G:\\Programming\\WPy-3662\\python-3.6.6.amd64\\lib\\mimetypes.py',
   'PYMODULE'),
  ('socketserver',
   'G:\\Programming\\WPy-3662\\python-3.6.6.amd64\\lib\\socketserver.py',
   'PYMODULE'),
  ('http',
   'G:\\Programming\\WPy-3662\\python-3.6.6.amd64\\lib\\http\\__init__.py',
   'PYMODULE'),
  ('http.server',
   'G:\\Programming\\WPy-3662\\python-3.6.6.amd64\\lib\\http\\server.py',
   'PYMODULE'),
  ('optparse',
   'G:\\Programming\\WPy-3662\\python-3.6.6.amd64\\lib\\optparse.py',
   'PYMODULE'),
  ('uu',
   'G:\\Programming\\WPy-3662\\python-3.6.6.amd64\\lib\\uu.py',
   'PYMODULE'),
  ('quopri',
   'G:\\Programming\\WPy-3662\\python-3.6.6.amd64\\lib\\quopri.py',
   'PYMODULE'),
  ('email.feedparser',
   'G:\\Programming\\WPy-3662\\python-3.6.6.amd64\\lib\\email\\feedparser.py',
   'PYMODULE'),
  ('email.parser',
   'G:\\Programming\\WPy-3662\\python-3.6.6.amd64\\lib\\email\\parser.py',
   'PYMODULE'),
  ('email',
   'G:\\Programming\\WPy-3662\\python-3.6.6.amd64\\lib\\email\\__init__.py',
   'PYMODULE'),
  ('calendar',
   'G:\\Programming\\WPy-3662\\python-3.6.6.amd64\\lib\\calendar.py',
   'PYMODULE'),
  ('email._parseaddr',
   'G:\\Programming\\WPy-3662\\python-3.6.6.amd64\\lib\\email\\_parseaddr.py',
   'PYMODULE'),
  ('email.utils',
   'G:\\Programming\\WPy-3662\\python-3.6.6.amd64\\lib\\email\\utils.py',
   'PYMODULE'),
  ('email.errors',
   'G:\\Programming\\WPy-3662\\python-3.6.6.amd64\\lib\\email\\errors.py',
   'PYMODULE'),
  ('email.header',
   'G:\\Programming\\WPy-3662\\python-3.6.6.amd64\\lib\\email\\header.py',
   'PYMODULE'),
  ('email._policybase',
   'G:\\Programming\\WPy-3662\\python-3.6.6.amd64\\lib\\email\\_policybase.py',
   'PYMODULE'),
  ('email.base64mime',
   'G:\\Programming\\WPy-3662\\python-3.6.6.amd64\\lib\\email\\base64mime.py',
   'PYMODULE'),
  ('email.encoders',
   'G:\\Programming\\WPy-3662\\python-3.6.6.amd64\\lib\\email\\encoders.py',
   'PYMODULE'),
  ('email.charset',
   'G:\\Programming\\WPy-3662\\python-3.6.6.amd64\\lib\\email\\charset.py',
   'PYMODULE'),
  ('base64',
   'G:\\Programming\\WPy-3662\\python-3.6.6.amd64\\lib\\base64.py',
   'PYMODULE'),
  ('email._encoded_words',
   'G:\\Programming\\WPy-3662\\python-3.6.6.amd64\\lib\\email\\_encoded_words.py',
   'PYMODULE'),
  ('hashlib',
   'G:\\Programming\\WPy-3662\\python-3.6.6.amd64\\lib\\hashlib.py',
   'PYMODULE'),
  ('bisect',
   'G:\\Programming\\WPy-3662\\python-3.6.6.amd64\\lib\\bisect.py',
   'PYMODULE'),
  ('random',
   'G:\\Programming\\WPy-3662\\python-3.6.6.amd64\\lib\\random.py',
   'PYMODULE'),
  ('email.generator',
   'G:\\Programming\\WPy-3662\\python-3.6.6.amd64\\lib\\email\\generator.py',
   'PYMODULE'),
  ('email.iterators',
   'G:\\Programming\\WPy-3662\\python-3.6.6.amd64\\lib\\email\\iterators.py',
   'PYMODULE'),
  ('urllib',
   'G:\\Programming\\WPy-3662\\python-3.6.6.amd64\\lib\\urllib\\__init__.py',
   'PYMODULE'),
  ('email._header_value_parser',
   'G:\\Programming\\WPy-3662\\python-3.6.6.amd64\\lib\\email\\_header_value_parser.py',
   'PYMODULE'),
  ('email.headerregistry',
   'G:\\Programming\\WPy-3662\\python-3.6.6.amd64\\lib\\email\\headerregistry.py',
   'PYMODULE'),
  ('email.quoprimime',
   'G:\\Programming\\WPy-3662\\python-3.6.6.amd64\\lib\\email\\quoprimime.py',
   'PYMODULE'),
  ('email.contentmanager',
   'G:\\Programming\\WPy-3662\\python-3.6.6.amd64\\lib\\email\\contentmanager.py',
   'PYMODULE'),
  ('email.policy',
   'G:\\Programming\\WPy-3662\\python-3.6.6.amd64\\lib\\email\\policy.py',
   'PYMODULE'),
  ('email.message',
   'G:\\Programming\\WPy-3662\\python-3.6.6.amd64\\lib\\email\\message.py',
   'PYMODULE'),
  ('bz2',
   'G:\\Programming\\WPy-3662\\python-3.6.6.amd64\\lib\\bz2.py',
   'PYMODULE'),
  ('lzma',
   'G:\\Programming\\WPy-3662\\python-3.6.6.amd64\\lib\\lzma.py',
   'PYMODULE'),
  ('_compression',
   'G:\\Programming\\WPy-3662\\python-3.6.6.amd64\\lib\\_compression.py',
   'PYMODULE'),
  ('gzip',
   'G:\\Programming\\WPy-3662\\python-3.6.6.amd64\\lib\\gzip.py',
   'PYMODULE'),
  ('tarfile',
   'G:\\Programming\\WPy-3662\\python-3.6.6.amd64\\lib\\tarfile.py',
   'PYMODULE'),
  ('py_compile',
   'G:\\Programming\\WPy-3662\\python-3.6.6.amd64\\lib\\py_compile.py',
   'PYMODULE'),
  ('zipfile',
   'G:\\Programming\\WPy-3662\\python-3.6.6.amd64\\lib\\zipfile.py',
   'PYMODULE'),
  ('shutil',
   'G:\\Programming\\WPy-3662\\python-3.6.6.amd64\\lib\\shutil.py',
   'PYMODULE'),
  ('socket',
   'G:\\Programming\\WPy-3662\\python-3.6.6.amd64\\lib\\socket.py',
   'PYMODULE'),
  ('webbrowser',
   'G:\\Programming\\WPy-3662\\python-3.6.6.amd64\\lib\\webbrowser.py',
   'PYMODULE'),
  ('pydoc',
   'G:\\Programming\\WPy-3662\\python-3.6.6.amd64\\lib\\pydoc.py',
   'PYMODULE'),
  ('copy',
   'G:\\Programming\\WPy-3662\\python-3.6.6.amd64\\lib\\copy.py',
   'PYMODULE'),
  ('struct',
   'G:\\Programming\\WPy-3662\\python-3.6.6.amd64\\lib\\struct.py',
   'PYMODULE'),
  ('gettext',
   'G:\\Programming\\WPy-3662\\python-3.6.6.amd64\\lib\\gettext.py',
   'PYMODULE'),
  ('getopt',
   'G:\\Programming\\WPy-3662\\python-3.6.6.amd64\\lib\\getopt.py',
   'PYMODULE'),
  ('pdb',
   'G:\\Programming\\WPy-3662\\python-3.6.6.amd64\\lib\\pdb.py',
   'PYMODULE'),
  ('unittest.util',
   'G:\\Programming\\WPy-3662\\python-3.6.6.amd64\\lib\\unittest\\util.py',
   'PYMODULE'),
  ('unittest.result',
   'G:\\Programming\\WPy-3662\\python-3.6.6.amd64\\lib\\unittest\\result.py',
   'PYMODULE'),
  ('string',
   'G:\\Programming\\WPy-3662\\python-3.6.6.amd64\\lib\\string.py',
   'PYMODULE'),
  ('logging',
   'G:\\Programming\\WPy-3662\\python-3.6.6.amd64\\lib\\logging\\__init__.py',
   'PYMODULE'),
  ('pprint',
   'G:\\Programming\\WPy-3662\\python-3.6.6.amd64\\lib\\pprint.py',
   'PYMODULE'),
  ('unittest.case',
   'G:\\Programming\\WPy-3662\\python-3.6.6.amd64\\lib\\unittest\\case.py',
   'PYMODULE'),
  ('unittest.suite',
   'G:\\Programming\\WPy-3662\\python-3.6.6.amd64\\lib\\unittest\\suite.py',
   'PYMODULE'),
  ('fnmatch',
   'G:\\Programming\\WPy-3662\\python-3.6.6.amd64\\lib\\fnmatch.py',
   'PYMODULE'),
  ('unittest.loader',
   'G:\\Programming\\WPy-3662\\python-3.6.6.amd64\\lib\\unittest\\loader.py',
   'PYMODULE'),
  ('unittest.runner',
   'G:\\Programming\\WPy-3662\\python-3.6.6.amd64\\lib\\unittest\\runner.py',
   'PYMODULE'),
  ('unittest.main',
   'G:\\Programming\\WPy-3662\\python-3.6.6.amd64\\lib\\unittest\\main.py',
   'PYMODULE'),
  ('unittest.signals',
   'G:\\Programming\\WPy-3662\\python-3.6.6.amd64\\lib\\unittest\\signals.py',
   'PYMODULE'),
  ('unittest',
   'G:\\Programming\\WPy-3662\\python-3.6.6.amd64\\lib\\unittest\\__init__.py',
   'PYMODULE'),
  ('doctest',
   'G:\\Programming\\WPy-3662\\python-3.6.6.amd64\\lib\\doctest.py',
   'PYMODULE'),
  ('stat',
   'G:\\Programming\\WPy-3662\\python-3.6.6.amd64\\lib\\stat.py',
   'PYMODULE'),
  ('genericpath',
   'G:\\Programming\\WPy-3662\\python-3.6.6.amd64\\lib\\genericpath.py',
   'PYMODULE'),
  ('posixpath',
   'G:\\Programming\\WPy-3662\\python-3.6.6.amd64\\lib\\posixpath.py',
   'PYMODULE'),
  ('signal',
   'G:\\Programming\\WPy-3662\\python-3.6.6.amd64\\lib\\signal.py',
   'PYMODULE'),
  ('contextlib',
   'G:\\Programming\\WPy-3662\\python-3.6.6.amd64\\lib\\contextlib.py',
   'PYMODULE'),
  ('_threading_local',
   'G:\\Programming\\WPy-3662\\python-3.6.6.amd64\\lib\\_threading_local.py',
   'PYMODULE'),
  ('threading',
   'G:\\Programming\\WPy-3662\\python-3.6.6.amd64\\lib\\threading.py',
   'PYMODULE'),
  ('selectors',
   'G:\\Programming\\WPy-3662\\python-3.6.6.amd64\\lib\\selectors.py',
   'PYMODULE'),
  ('_dummy_thread',
   'G:\\Programming\\WPy-3662\\python-3.6.6.amd64\\lib\\_dummy_thread.py',
   'PYMODULE'),
  ('dummy_threading',
   'G:\\Programming\\WPy-3662\\python-3.6.6.amd64\\lib\\dummy_threading.py',
   'PYMODULE'),
  ('subprocess',
   'G:\\Programming\\WPy-3662\\python-3.6.6.amd64\\lib\\subprocess.py',
   'PYMODULE'),
  ('os',
   'G:\\Programming\\WPy-3662\\python-3.6.6.amd64\\lib\\os.py',
   'PYMODULE'),
  ('src.controllers.akAnalizatorController',
   'G:\\Programming\\Projects\\QtStatisticCalculator\\src\\controllers\\akAnalizatorController.py',
   'PYMODULE'),
  ('src.controllers', '-', 'PYMODULE'),
  ('src', '-', 'PYMODULE'),
  ('src.views.ui_analizator_main',
   'G:\\Programming\\Projects\\QtStatisticCalculator\\src\\views\\ui_analizator_main.py',
   'PYMODULE'),
  ('src.views', '-', 'PYMODULE'),
  ('src.Resources',
   'G:\\Programming\\Projects\\QtStatisticCalculator\\src\\Resources.py',
   'PYMODULE'),
  ('src.models.akListModel',
   'G:\\Programming\\Projects\\QtStatisticCalculator\\src\\models\\akListModel.py',
   'PYMODULE'),
  ('src.models', '-', 'PYMODULE'),
  ('src.data.akSymbol',
   'G:\\Programming\\Projects\\QtStatisticCalculator\\src\\data\\akSymbol.py',
   'PYMODULE'),
  ('src.data', '-', 'PYMODULE'),
  ('src.data.akSeries',
   'G:\\Programming\\Projects\\QtStatisticCalculator\\src\\data\\akSeries.py',
   'PYMODULE'),
  ('src.data.akStructure',
   'G:\\Programming\\Projects\\QtStatisticCalculator\\src\\data\\akStructure.py',
   'PYMODULE'),
  ('src.data.akSequence',
   'G:\\Programming\\Projects\\QtStatisticCalculator\\src\\data\\akSequence.py',
   'PYMODULE'),
  ('src.data.akAmplitude',
   'G:\\Programming\\Projects\\QtStatisticCalculator\\src\\data\\akAmplitude.py',
   'PYMODULE'),
  ('src.data.akInstrument',
   'G:\\Programming\\Projects\\QtStatisticCalculator\\src\\data\\akInstrument.py',
   'PYMODULE'),
  ('typing',
   'G:\\Programming\\WPy-3662\\python-3.6.6.amd64\\lib\\typing.py',
   'PYMODULE'),
  ('src.data.export.akExport',
   'G:\\Programming\\Projects\\QtStatisticCalculator\\src\\data\\export\\akExport.py',
   'PYMODULE'),
  ('src.data.export', '-', 'PYMODULE'),
  ('prettytable',
   'G:\\Programming\\WPy-3662\\python-3.6.6.amd64\\lib\\site-packages\\prettytable\\__init__.py',
   'PYMODULE'),
  ('prettytable.factory',
   'G:\\Programming\\WPy-3662\\python-3.6.6.amd64\\lib\\site-packages\\prettytable\\factory.py',
   'PYMODULE'),
  ('prettytable._compact',
   'G:\\Programming\\WPy-3662\\python-3.6.6.amd64\\lib\\site-packages\\prettytable\\_compact.py',
   'PYMODULE'),
  ('cgi',
   'G:\\Programming\\WPy-3662\\python-3.6.6.amd64\\lib\\cgi.py',
   'PYMODULE'),
  ('html.parser',
   'G:\\Programming\\WPy-3662\\python-3.6.6.amd64\\lib\\html\\parser.py',
   'PYMODULE'),
  ('_markupbase',
   'G:\\Programming\\WPy-3662\\python-3.6.6.amd64\\lib\\_markupbase.py',
   'PYMODULE'),
  ('csv',
   'G:\\Programming\\WPy-3662\\python-3.6.6.amd64\\lib\\csv.py',
   'PYMODULE'),
  ('prettytable.prettytable',
   'G:\\Programming\\WPy-3662\\python-3.6.6.amd64\\lib\\site-packages\\prettytable\\prettytable.py',
   'PYMODULE'),
  ('src.data.akPeriod',
   'G:\\Programming\\Projects\\QtStatisticCalculator\\src\\data\\akPeriod.py',
   'PYMODULE'),
  ('src.models.akTableModel',
   'G:\\Programming\\Projects\\QtStatisticCalculator\\src\\models\\akTableModel.py',
   'PYMODULE'),
  ('src.data.akVariant',
   'G:\\Programming\\Projects\\QtStatisticCalculator\\src\\data\\akVariant.py',
   'PYMODULE'),
  ('src.data.akEnums',
   'G:\\Programming\\Projects\\QtStatisticCalculator\\src\\data\\akEnums.py',
   'PYMODULE'),
  ('src.data.akAnalysis',
   'G:\\Programming\\Projects\\QtStatisticCalculator\\src\\data\\akAnalysis.py',
   'PYMODULE'),
  ('src.data.akAnalizator',
   'G:\\Programming\\Projects\\QtStatisticCalculator\\src\\data\\akAnalizator.py',
   'PYMODULE'),
  ('src.controls.akFileDialog',
   'G:\\Programming\\Projects\\QtStatisticCalculator\\src\\controls\\akFileDialog.py',
   'PYMODULE'),
  ('src.controls', '-', 'PYMODULE'),
  ('src.akFunctions',
   'G:\\Programming\\Projects\\QtStatisticCalculator\\src\\akFunctions.py',
   'PYMODULE'),
  ('dateutil.parser',
   'G:\\Programming\\WPy-3662\\python-3.6.6.amd64\\lib\\site-packages\\dateutil\\parser\\__init__.py',
   'PYMODULE'),
  ('dateutil.parser.isoparser',
   'G:\\Programming\\WPy-3662\\python-3.6.6.amd64\\lib\\site-packages\\dateutil\\parser\\isoparser.py',
   'PYMODULE'),
  ('six',
   'G:\\Programming\\WPy-3662\\python-3.6.6.amd64\\lib\\site-packages\\six.py',
   'PYMODULE'),
  ('dateutil.tz',
   'G:\\Programming\\WPy-3662\\python-3.6.6.amd64\\lib\\site-packages\\dateutil\\tz\\__init__.py',
   'PYMODULE'),
  ('dateutil.tz.tz',
   'G:\\Programming\\WPy-3662\\python-3.6.6.amd64\\lib\\site-packages\\dateutil\\tz\\tz.py',
   'PYMODULE'),
  ('dateutil.zoneinfo',
   'G:\\Programming\\WPy-3662\\python-3.6.6.amd64\\lib\\site-packages\\dateutil\\zoneinfo\\__init__.py',
   'PYMODULE'),
  ('json',
   'G:\\Programming\\WPy-3662\\python-3.6.6.amd64\\lib\\json\\__init__.py',
   'PYMODULE'),
  ('json.encoder',
   'G:\\Programming\\WPy-3662\\python-3.6.6.amd64\\lib\\json\\encoder.py',
   'PYMODULE'),
  ('json.decoder',
   'G:\\Programming\\WPy-3662\\python-3.6.6.amd64\\lib\\json\\decoder.py',
   'PYMODULE'),
  ('json.scanner',
   'G:\\Programming\\WPy-3662\\python-3.6.6.amd64\\lib\\json\\scanner.py',
   'PYMODULE'),
  ('dateutil.rrule',
   'G:\\Programming\\WPy-3662\\python-3.6.6.amd64\\lib\\site-packages\\dateutil\\rrule.py',
   'PYMODULE'),
  ('dateutil.easter',
   'G:\\Programming\\WPy-3662\\python-3.6.6.amd64\\lib\\site-packages\\dateutil\\easter.py',
   'PYMODULE'),
  ('dateutil._common',
   'G:\\Programming\\WPy-3662\\python-3.6.6.amd64\\lib\\site-packages\\dateutil\\_common.py',
   'PYMODULE'),
  ('fractions',
   'G:\\Programming\\WPy-3662\\python-3.6.6.amd64\\lib\\fractions.py',
   'PYMODULE'),
  ('numbers',
   'G:\\Programming\\WPy-3662\\python-3.6.6.amd64\\lib\\numbers.py',
   'PYMODULE'),
  ('decimal',
   'G:\\Programming\\WPy-3662\\python-3.6.6.amd64\\lib\\decimal.py',
   'PYMODULE'),
  ('_pydecimal',
   'G:\\Programming\\WPy-3662\\python-3.6.6.amd64\\lib\\_pydecimal.py',
   'PYMODULE'),
  ('dateutil.relativedelta',
   'G:\\Programming\\WPy-3662\\python-3.6.6.amd64\\lib\\site-packages\\dateutil\\relativedelta.py',
   'PYMODULE'),
  ('dateutil.tz.win',
   'G:\\Programming\\WPy-3662\\python-3.6.6.amd64\\lib\\site-packages\\dateutil\\tz\\win.py',
   'PYMODULE'),
  ('ctypes.wintypes',
   'G:\\Programming\\WPy-3662\\python-3.6.6.amd64\\lib\\ctypes\\wintypes.py',
   'PYMODULE'),
  ('ctypes',
   'G:\\Programming\\WPy-3662\\python-3.6.6.amd64\\lib\\ctypes\\__init__.py',
   'PYMODULE'),
  ('ctypes._endian',
   'G:\\Programming\\WPy-3662\\python-3.6.6.amd64\\lib\\ctypes\\_endian.py',
   'PYMODULE'),
  ('dateutil.tz._factories',
   'G:\\Programming\\WPy-3662\\python-3.6.6.amd64\\lib\\site-packages\\dateutil\\tz\\_factories.py',
   'PYMODULE'),
  ('dateutil.tz._common',
   'G:\\Programming\\WPy-3662\\python-3.6.6.amd64\\lib\\site-packages\\dateutil\\tz\\_common.py',
   'PYMODULE'),
  ('dateutil.parser._parser',
   'G:\\Programming\\WPy-3662\\python-3.6.6.amd64\\lib\\site-packages\\dateutil\\parser\\_parser.py',
   'PYMODULE'),
  ('dateutil',
   'G:\\Programming\\WPy-3662\\python-3.6.6.amd64\\lib\\site-packages\\dateutil\\__init__.py',
   'PYMODULE'),
  ('dateutil._version',
   'G:\\Programming\\WPy-3662\\python-3.6.6.amd64\\lib\\site-packages\\dateutil\\_version.py',
   'PYMODULE'),
  ('PyQt5',
   'G:\\Programming\\WPy-3662\\python-3.6.6.amd64\\lib\\site-packages\\PyQt5\\__init__.py',
   'PYMODULE')],
 [('api-ms-win-crt-math-l1-1-0.dll',
   'C:\\Program Files\\TortoiseGit\\bin\\api-ms-win-crt-math-l1-1-0.dll',
   'BINARY'),
  ('python36.dll',
   'G:\\Programming\\WPy-3662\\python-3.6.6.amd64\\python36.dll',
   'BINARY'),
  ('api-ms-win-crt-locale-l1-1-0.dll',
   'C:\\Program Files\\TortoiseGit\\bin\\api-ms-win-crt-locale-l1-1-0.dll',
   'BINARY'),
  ('api-ms-win-crt-stdio-l1-1-0.dll',
   'C:\\Program Files\\TortoiseGit\\bin\\api-ms-win-crt-stdio-l1-1-0.dll',
   'BINARY'),
  ('api-ms-win-crt-runtime-l1-1-0.dll',
   'C:\\Program Files\\TortoiseGit\\bin\\api-ms-win-crt-runtime-l1-1-0.dll',
   'BINARY'),
  ('VCRUNTIME140.dll',
   'G:\\Programming\\WPy-3662\\python-3.6.6.amd64\\VCRUNTIME140.dll',
   'BINARY'),
  ('api-ms-win-crt-heap-l1-1-0.dll',
   'C:\\Program Files\\TortoiseGit\\bin\\api-ms-win-crt-heap-l1-1-0.dll',
   'BINARY'),
  ('ucrtbase.dll',
   'C:\\Program Files\\TortoiseGit\\bin\\ucrtbase.dll',
   'BINARY'),
  ('api-ms-win-crt-convert-l1-1-0.dll',
   'C:\\Program Files\\TortoiseGit\\bin\\api-ms-win-crt-convert-l1-1-0.dll',
   'BINARY'),
  ('api-ms-win-crt-time-l1-1-0.dll',
   'C:\\Program Files\\TortoiseGit\\bin\\api-ms-win-crt-time-l1-1-0.dll',
   'BINARY'),
  ('api-ms-win-crt-process-l1-1-0.dll',
   'C:\\Program Files\\TortoiseGit\\bin\\api-ms-win-crt-process-l1-1-0.dll',
   'BINARY'),
  ('api-ms-win-crt-conio-l1-1-0.dll',
   'C:\\Program Files\\TortoiseGit\\bin\\api-ms-win-crt-conio-l1-1-0.dll',
   'BINARY'),
  ('api-ms-win-crt-string-l1-1-0.dll',
   'C:\\Program Files\\TortoiseGit\\bin\\api-ms-win-crt-string-l1-1-0.dll',
   'BINARY'),
  ('api-ms-win-crt-environment-l1-1-0.dll',
   'C:\\Program Files\\TortoiseGit\\bin\\api-ms-win-crt-environment-l1-1-0.dll',
   'BINARY'),
  ('api-ms-win-crt-filesystem-l1-1-0.dll',
   'C:\\Program Files\\TortoiseGit\\bin\\api-ms-win-crt-filesystem-l1-1-0.dll',
   'BINARY'),
  ('api-ms-win-core-file-l1-2-0.dll',
   'C:\\Program Files\\TortoiseGit\\bin\\api-ms-win-core-file-l1-2-0.dll',
   'BINARY'),
  ('api-ms-win-core-processenvironment-l1-1-0.dll',
   'C:\\Program '
   'Files\\TortoiseGit\\bin\\api-ms-win-core-processenvironment-l1-1-0.dll',
   'BINARY'),
  ('api-ms-win-core-file-l1-1-0.dll',
   'C:\\Program Files\\TortoiseGit\\bin\\api-ms-win-core-file-l1-1-0.dll',
   'BINARY'),
  ('api-ms-win-core-localization-l1-2-0.dll',
   'C:\\Program '
   'Files\\TortoiseGit\\bin\\api-ms-win-core-localization-l1-2-0.dll',
   'BINARY'),
  ('api-ms-win-core-datetime-l1-1-0.dll',
   'C:\\Program Files\\TortoiseGit\\bin\\api-ms-win-core-datetime-l1-1-0.dll',
   'BINARY'),
  ('api-ms-win-core-heap-l1-1-0.dll',
   'C:\\Program Files\\TortoiseGit\\bin\\api-ms-win-core-heap-l1-1-0.dll',
   'BINARY'),
  ('api-ms-win-core-processthreads-l1-1-0.dll',
   'C:\\Program '
   'Files\\TortoiseGit\\bin\\api-ms-win-core-processthreads-l1-1-0.dll',
   'BINARY'),
  ('api-ms-win-core-string-l1-1-0.dll',
   'C:\\Program Files\\TortoiseGit\\bin\\api-ms-win-core-string-l1-1-0.dll',
   'BINARY'),
  ('api-ms-win-core-profile-l1-1-0.dll',
   'C:\\Program Files\\TortoiseGit\\bin\\api-ms-win-core-profile-l1-1-0.dll',
   'BINARY'),
  ('api-ms-win-core-synch-l1-2-0.dll',
   'C:\\Program Files\\TortoiseGit\\bin\\api-ms-win-core-synch-l1-2-0.dll',
   'BINARY'),
  ('api-ms-win-core-memory-l1-1-0.dll',
   'C:\\Program Files\\TortoiseGit\\bin\\api-ms-win-core-memory-l1-1-0.dll',
   'BINARY'),
  ('api-ms-win-core-file-l2-1-0.dll',
   'C:\\Program Files\\TortoiseGit\\bin\\api-ms-win-core-file-l2-1-0.dll',
   'BINARY'),
  ('api-ms-win-core-synch-l1-1-0.dll',
   'C:\\Program Files\\TortoiseGit\\bin\\api-ms-win-core-synch-l1-1-0.dll',
   'BINARY'),
  ('api-ms-win-core-util-l1-1-0.dll',
   'C:\\Program Files\\TortoiseGit\\bin\\api-ms-win-core-util-l1-1-0.dll',
   'BINARY'),
  ('api-ms-win-core-libraryloader-l1-1-0.dll',
   'C:\\Program '
   'Files\\TortoiseGit\\bin\\api-ms-win-core-libraryloader-l1-1-0.dll',
   'BINARY'),
  ('api-ms-win-core-rtlsupport-l1-1-0.dll',
   'C:\\Program Files\\TortoiseGit\\bin\\api-ms-win-core-rtlsupport-l1-1-0.dll',
   'BINARY'),
  ('api-ms-win-core-sysinfo-l1-1-0.dll',
   'C:\\Program Files\\TortoiseGit\\bin\\api-ms-win-core-sysinfo-l1-1-0.dll',
   'BINARY'),
  ('api-ms-win-core-errorhandling-l1-1-0.dll',
   'C:\\Program '
   'Files\\TortoiseGit\\bin\\api-ms-win-core-errorhandling-l1-1-0.dll',
   'BINARY'),
  ('api-ms-win-core-processthreads-l1-1-1.dll',
   'C:\\Program '
   'Files\\TortoiseGit\\bin\\api-ms-win-core-processthreads-l1-1-1.dll',
   'BINARY'),
  ('api-ms-win-core-namedpipe-l1-1-0.dll',
   'C:\\Program Files\\TortoiseGit\\bin\\api-ms-win-core-namedpipe-l1-1-0.dll',
   'BINARY'),
  ('api-ms-win-core-timezone-l1-1-0.dll',
   'C:\\Program Files\\TortoiseGit\\bin\\api-ms-win-core-timezone-l1-1-0.dll',
   'BINARY'),
  ('api-ms-win-core-console-l1-1-0.dll',
   'C:\\Program Files\\TortoiseGit\\bin\\api-ms-win-core-console-l1-1-0.dll',
   'BINARY'),
  ('api-ms-win-core-handle-l1-1-0.dll',
   'C:\\Program Files\\TortoiseGit\\bin\\api-ms-win-core-handle-l1-1-0.dll',
   'BINARY'),
  ('api-ms-win-core-debug-l1-1-0.dll',
   'C:\\Program Files\\TortoiseGit\\bin\\api-ms-win-core-debug-l1-1-0.dll',
   'BINARY'),
  ('api-ms-win-core-interlocked-l1-1-0.dll',
   'C:\\Program '
   'Files\\TortoiseGit\\bin\\api-ms-win-core-interlocked-l1-1-0.dll',
   'BINARY'),
  ('PyQt5\\Qt\\plugins\\platforms\\qoffscreen.dll',
   'G:\\Programming\\WPy-3662\\python-3.6.6.amd64\\lib\\site-packages\\PyQt5\\Qt\\plugins\\platforms\\qoffscreen.dll',
   'BINARY'),
  ('PyQt5\\Qt\\plugins\\imageformats\\qtga.dll',
   'G:\\Programming\\WPy-3662\\python-3.6.6.amd64\\lib\\site-packages\\PyQt5\\Qt\\plugins\\imageformats\\qtga.dll',
   'BINARY'),
  ('PyQt5\\Qt\\plugins\\imageformats\\qwebp.dll',
   'G:\\Programming\\WPy-3662\\python-3.6.6.amd64\\lib\\site-packages\\PyQt5\\Qt\\plugins\\imageformats\\qwebp.dll',
   'BINARY'),
  ('PyQt5\\Qt\\plugins\\imageformats\\qtiff.dll',
   'G:\\Programming\\WPy-3662\\python-3.6.6.amd64\\lib\\site-packages\\PyQt5\\Qt\\plugins\\imageformats\\qtiff.dll',
   'BINARY'),
  ('PyQt5\\Qt\\plugins\\iconengines\\qsvgicon.dll',
   'G:\\Programming\\WPy-3662\\python-3.6.6.amd64\\lib\\site-packages\\PyQt5\\Qt\\plugins\\iconengines\\qsvgicon.dll',
   'BINARY'),
  ('PyQt5\\Qt\\plugins\\imageformats\\qicns.dll',
   'G:\\Programming\\WPy-3662\\python-3.6.6.amd64\\lib\\site-packages\\PyQt5\\Qt\\plugins\\imageformats\\qicns.dll',
   'BINARY'),
  ('PyQt5\\Qt\\plugins\\imageformats\\qsvg.dll',
   'G:\\Programming\\WPy-3662\\python-3.6.6.amd64\\lib\\site-packages\\PyQt5\\Qt\\plugins\\imageformats\\qsvg.dll',
   'BINARY'),
  ('PyQt5\\Qt\\plugins\\imageformats\\qwbmp.dll',
   'G:\\Programming\\WPy-3662\\python-3.6.6.amd64\\lib\\site-packages\\PyQt5\\Qt\\plugins\\imageformats\\qwbmp.dll',
   'BINARY'),
  ('PyQt5\\Qt\\plugins\\platforms\\qwindows.dll',
   'G:\\Programming\\WPy-3662\\python-3.6.6.amd64\\lib\\site-packages\\PyQt5\\Qt\\plugins\\platforms\\qwindows.dll',
   'BINARY'),
  ('PyQt5\\Qt\\plugins\\platforms\\qminimal.dll',
   'G:\\Programming\\WPy-3662\\python-3.6.6.amd64\\lib\\site-packages\\PyQt5\\Qt\\plugins\\platforms\\qminimal.dll',
   'BINARY'),
  ('PyQt5\\Qt\\plugins\\imageformats\\qjpeg.dll',
   'G:\\Programming\\WPy-3662\\python-3.6.6.amd64\\lib\\site-packages\\PyQt5\\Qt\\plugins\\imageformats\\qjpeg.dll',
   'BINARY'),
  ('PyQt5\\Qt\\plugins\\imageformats\\qico.dll',
   'G:\\Programming\\WPy-3662\\python-3.6.6.amd64\\lib\\site-packages\\PyQt5\\Qt\\plugins\\imageformats\\qico.dll',
   'BINARY'),
  ('PyQt5\\Qt\\plugins\\imageformats\\qgif.dll',
   'G:\\Programming\\WPy-3662\\python-3.6.6.amd64\\lib\\site-packages\\PyQt5\\Qt\\plugins\\imageformats\\qgif.dll',
   'BINARY'),
  ('_ssl',
   'G:\\Programming\\WPy-3662\\python-3.6.6.amd64\\DLLs\\_ssl.pyd',
   'EXTENSION'),
  ('unicodedata',
   'G:\\Programming\\WPy-3662\\python-3.6.6.amd64\\DLLs\\unicodedata.pyd',
   'EXTENSION'),
  ('pyexpat',
   'G:\\Programming\\WPy-3662\\python-3.6.6.amd64\\DLLs\\pyexpat.pyd',
   'EXTENSION'),
  ('_hashlib',
   'G:\\Programming\\WPy-3662\\python-3.6.6.amd64\\DLLs\\_hashlib.pyd',
   'EXTENSION'),
  ('_bz2',
   'G:\\Programming\\WPy-3662\\python-3.6.6.amd64\\DLLs\\_bz2.pyd',
   'EXTENSION'),
  ('_lzma',
   'G:\\Programming\\WPy-3662\\python-3.6.6.amd64\\DLLs\\_lzma.pyd',
   'EXTENSION'),
  ('_socket',
   'G:\\Programming\\WPy-3662\\python-3.6.6.amd64\\DLLs\\_socket.pyd',
   'EXTENSION'),
  ('select',
   'G:\\Programming\\WPy-3662\\python-3.6.6.amd64\\DLLs\\select.pyd',
   'EXTENSION'),
  ('PyQt5.QtCore',
   'G:\\Programming\\WPy-3662\\python-3.6.6.amd64\\lib\\site-packages\\PyQt5\\QtCore.pyd',
   'EXTENSION'),
  ('_decimal',
   'G:\\Programming\\WPy-3662\\python-3.6.6.amd64\\DLLs\\_decimal.pyd',
   'EXTENSION'),
  ('_ctypes',
   'G:\\Programming\\WPy-3662\\python-3.6.6.amd64\\DLLs\\_ctypes.pyd',
   'EXTENSION'),
  ('PyQt5.QtGui',
   'G:\\Programming\\WPy-3662\\python-3.6.6.amd64\\lib\\site-packages\\PyQt5\\QtGui.pyd',
   'EXTENSION'),
  ('PyQt5.QtWidgets',
   'G:\\Programming\\WPy-3662\\python-3.6.6.amd64\\lib\\site-packages\\PyQt5\\QtWidgets.pyd',
   'EXTENSION'),
  ('sip',
   'G:\\Programming\\WPy-3662\\python-3.6.6.amd64\\lib\\site-packages\\sip.pyd',
   'EXTENSION'),
  ('Qt5Core.dll',
   'G:\\Programming\\WPy-3662\\python-3.6.6.amd64\\lib\\site-packages\\PyQt5\\Qt\\bin\\qt5core.dll',
   'BINARY'),
  ('Qt5Gui.dll',
   'G:\\Programming\\WPy-3662\\python-3.6.6.amd64\\lib\\site-packages\\PyQt5\\Qt\\bin\\qt5gui.dll',
   'BINARY'),
  ('api-ms-win-crt-utility-l1-1-0.dll',
   'C:\\Program Files\\TortoiseGit\\bin\\api-ms-win-crt-utility-l1-1-0.dll',
   'BINARY'),
  ('Qt5Svg.dll',
   'G:\\Programming\\WPy-3662\\python-3.6.6.amd64\\lib\\site-packages\\PyQt5\\Qt\\bin\\qt5svg.dll',
   'BINARY'),
  ('MSVCP140.dll',
   'G:\\Programming\\WPy-3662\\python-3.6.6.amd64\\msvcp140.dll',
   'BINARY'),
  ('python3.dll',
   'G:\\Programming\\WPy-3662\\python-3.6.6.amd64\\python3.dll',
   'BINARY'),
  ('Qt5Widgets.dll',
   'G:\\Programming\\WPy-3662\\python-3.6.6.amd64\\lib\\site-packages\\PyQt5\\Qt\\bin\\qt5widgets.dll',
   'BINARY'),
  ('api-ms-win-crt-multibyte-l1-1-0.dll',
   'C:\\Program Files\\TortoiseGit\\bin\\api-ms-win-crt-multibyte-l1-1-0.dll',
   'BINARY')],
 [],
 [],
 [('base_library.zip',
   'G:\\Programming\\Projects\\QtStatisticCalculator\\build\\akAnalizator\\base_library.zip',
   'DATA'),
  ('PyQt5\\Qt\\translations\\qtbase_de.qm',
   'G:\\Programming\\WPy-3662\\python-3.6.6.amd64\\lib\\site-packages\\PyQt5\\Qt\\translations\\qtbase_de.qm',
   'DATA'),
  ('PyQt5\\Qt\\translations\\qtbase_he.qm',
   'G:\\Programming\\WPy-3662\\python-3.6.6.amd64\\lib\\site-packages\\PyQt5\\Qt\\translations\\qtbase_he.qm',
   'DATA'),
  ('PyQt5\\Qt\\translations\\qtbase_cs.qm',
   'G:\\Programming\\WPy-3662\\python-3.6.6.amd64\\lib\\site-packages\\PyQt5\\Qt\\translations\\qtbase_cs.qm',
   'DATA'),
  ('PyQt5\\Qt\\translations\\qtbase_ko.qm',
   'G:\\Programming\\WPy-3662\\python-3.6.6.amd64\\lib\\site-packages\\PyQt5\\Qt\\translations\\qtbase_ko.qm',
   'DATA'),
  ('PyQt5\\Qt\\translations\\qtbase_bg.qm',
   'G:\\Programming\\WPy-3662\\python-3.6.6.amd64\\lib\\site-packages\\PyQt5\\Qt\\translations\\qtbase_bg.qm',
   'DATA'),
  ('PyQt5\\Qt\\translations\\qtbase_fi.qm',
   'G:\\Programming\\WPy-3662\\python-3.6.6.amd64\\lib\\site-packages\\PyQt5\\Qt\\translations\\qtbase_fi.qm',
   'DATA'),
  ('PyQt5\\Qt\\translations\\qtbase_fr.qm',
   'G:\\Programming\\WPy-3662\\python-3.6.6.amd64\\lib\\site-packages\\PyQt5\\Qt\\translations\\qtbase_fr.qm',
   'DATA'),
  ('PyQt5\\Qt\\translations\\qtbase_ru.qm',
   'G:\\Programming\\WPy-3662\\python-3.6.6.amd64\\lib\\site-packages\\PyQt5\\Qt\\translations\\qtbase_ru.qm',
   'DATA'),
  ('PyQt5\\Qt\\translations\\qtbase_hu.qm',
   'G:\\Programming\\WPy-3662\\python-3.6.6.amd64\\lib\\site-packages\\PyQt5\\Qt\\translations\\qtbase_hu.qm',
   'DATA'),
  ('PyQt5\\Qt\\translations\\qtbase_da.qm',
   'G:\\Programming\\WPy-3662\\python-3.6.6.amd64\\lib\\site-packages\\PyQt5\\Qt\\translations\\qtbase_da.qm',
   'DATA'),
  ('PyQt5\\Qt\\translations\\qtbase_uk.qm',
   'G:\\Programming\\WPy-3662\\python-3.6.6.amd64\\lib\\site-packages\\PyQt5\\Qt\\translations\\qtbase_uk.qm',
   'DATA'),
  ('PyQt5\\Qt\\translations\\qtbase_ja.qm',
   'G:\\Programming\\WPy-3662\\python-3.6.6.amd64\\lib\\site-packages\\PyQt5\\Qt\\translations\\qtbase_ja.qm',
   'DATA'),
  ('PyQt5\\Qt\\translations\\qtbase_ca.qm',
   'G:\\Programming\\WPy-3662\\python-3.6.6.amd64\\lib\\site-packages\\PyQt5\\Qt\\translations\\qtbase_ca.qm',
   'DATA'),
  ('PyQt5\\Qt\\translations\\qtbase_en.qm',
   'G:\\Programming\\WPy-3662\\python-3.6.6.amd64\\lib\\site-packages\\PyQt5\\Qt\\translations\\qtbase_en.qm',
   'DATA'),
  ('PyQt5\\Qt\\translations\\qtbase_es.qm',
   'G:\\Programming\\WPy-3662\\python-3.6.6.amd64\\lib\\site-packages\\PyQt5\\Qt\\translations\\qtbase_es.qm',
   'DATA'),
  ('PyQt5\\Qt\\bin\\qt.conf',
   'G:\\Programming\\WPy-3662\\python-3.6.6.amd64\\lib\\site-packages\\PyQt5\\Qt\\bin\\qt.conf',
   'DATA'),
  ('PyQt5\\Qt\\translations\\qtbase_lv.qm',
   'G:\\Programming\\WPy-3662\\python-3.6.6.amd64\\lib\\site-packages\\PyQt5\\Qt\\translations\\qtbase_lv.qm',
   'DATA'),
  ('PyQt5\\Qt\\translations\\qtbase_pl.qm',
   'G:\\Programming\\WPy-3662\\python-3.6.6.amd64\\lib\\site-packages\\PyQt5\\Qt\\translations\\qtbase_pl.qm',
   'DATA'),
  ('PyQt5\\Qt\\translations\\qtbase_it.qm',
   'G:\\Programming\\WPy-3662\\python-3.6.6.amd64\\lib\\site-packages\\PyQt5\\Qt\\translations\\qtbase_it.qm',
   'DATA'),
  ('PyQt5\\Qt\\translations\\qtbase_gd.qm',
   'G:\\Programming\\WPy-3662\\python-3.6.6.amd64\\lib\\site-packages\\PyQt5\\Qt\\translations\\qtbase_gd.qm',
   'DATA'),
  ('PyQt5\\Qt\\translations\\qtbase_sk.qm',
   'G:\\Programming\\WPy-3662\\python-3.6.6.amd64\\lib\\site-packages\\PyQt5\\Qt\\translations\\qtbase_sk.qm',
   'DATA')],
 [])
