('G:\\Programming\\Projects\\QtStatisticCalculator\\build\\akAnalizator\\PKG-00.pkg',
 {'BINARY': 1,
  'DATA': 1,
  'EXECUTABLE': 1,
  'EXTENSION': 1,
  'PYMODULE': 1,
  'PYSOURCE': 1,
  'PYZ': 0},
 [('PYZ-00.pyz',
   'G:\\Programming\\Projects\\QtStatisticCalculator\\build\\akAnalizator\\PYZ-00.pyz',
   'PYZ'),
  ('struct',
   'G:\\Programming\\WPy-3662\\python-3.6.6.amd64\\lib\\struct.pyo',
   'PYMODULE'),
  ('pyimod01_os_path',
   'G:\\Programming\\WPy-3662\\python-3.6.6.amd64\\lib\\site-packages\\PyInstaller\\loader\\pyimod01_os_path.pyc',
   'PYMODULE'),
  ('pyimod02_archive',
   'G:\\Programming\\WPy-3662\\python-3.6.6.amd64\\lib\\site-packages\\PyInstaller\\loader\\pyimod02_archive.pyc',
   'PYMODULE'),
  ('pyimod03_importers',
   'G:\\Programming\\WPy-3662\\python-3.6.6.amd64\\lib\\site-packages\\PyInstaller\\loader\\pyimod03_importers.pyc',
   'PYMODULE'),
  ('pyiboot01_bootstrap',
   'G:\\Programming\\WPy-3662\\python-3.6.6.amd64\\lib\\site-packages\\PyInstaller\\loader\\pyiboot01_bootstrap.py',
   'PYSOURCE'),
  ('pyi_rth_qt5',
   'G:\\Programming\\WPy-3662\\python-3.6.6.amd64\\lib\\site-packages\\PyInstaller\\loader\\rthooks\\pyi_rth_qt5.py',
   'PYSOURCE'),
  ('akAnalizator',
   'G:\\Programming\\Projects\\QtStatisticCalculator\\akAnalizator.py',
   'PYSOURCE'),
  ('akAnalizator.exe.manifest',
   'G:\\Programming\\Projects\\QtStatisticCalculator\\build\\akAnalizator\\akAnalizator.exe.manifest',
   'BINARY')],
 True,
 False,
 False)
