Date,Open,High,Low,Close,Volume
2010-06-30,10857.3,11258,9753.84,9774.02,14784883395
2010-09-30,9773.27,10948.88,9614.32,10788.05,12045324333
2010-12-31,10789.72,11625,10711.12,11577.51,10848709937
2011-03-31,11577.43,12391.29,11555.48,12319.73,10754047781
2011-06-30,12321.02,12876,11862.53,12414.34,10775574434
2011-09-30,12412.07,12753.89,10597.14,10913.38,13655411135
2011-12-31,10912.1,12328.47,10404.49,12217.56,10447466006
2012-03-31,12221.19,13289.08,12221.19,13212.04,8907272914
2012-06-30,13211.36,13338.66,12035.09,12880.09,8564580224
2012-09-30,12879.71,13653.24,12492.25,13437.13,6775358945
2012-12-31,13437.66,13661.87,12471.49,13104.14,7826969712
2013-03-31,13104.3,14585.1,13104.3,14578.54,7824102744
2013-06-30,14578.54,15542.4,14434.43,14909.6,8624075736
2013-09-30,14911.6,15709.58,14760.41,15129.67,7278472986
2013-12-31,15132.49,16588.25,14719.43,16576.66,6086931820
2014-03-31,16572.17,16573.07,15340.69,16457.66,6344034648
2014-06-30,16457.66,16977.85,16015.32,16826.6,5387548300
2014-09-30,16826.6,17350.64,16334.67,17042.9,5045740988
2014-12-31,17040.46,18103.45,15855.12,17823.07,6046929392
2015-03-31,17823.07,18288.63,17037.76,17776.12,6397326579
2015-06-30,17778.52,18351.36,17576.5,17619.51,6232027672
2015-09-30,17638.12,18137.12,15370.33,16284.7,7492363672
2015-12-31,16278.62,17977.85,16013.66,17425.03,7430887824
2016-03-31,17405.48,17790.11,15450.56,17685.09,7746871888
2016-06-30,17661.74,18167.63,17063.08,17929.99,6327065064
2016-09-30,17924.24,18668.44,17713.45,18308.15,5616243380
2016-12-31,18279.6,19987.63,17883.56,19762.6,5858744132
2017-03-31,19872.86,21169.11,19677.94,20663.22,5555182620
2017-06-30,20665.17,21535.03,20379.55,21349.63,5499680172
2017-09-30,21392.3,22419.51,21279.3,22405.09,5267409692
2017-12-31,22423.47,24876.07,22416,24719.22,5840830000
2018-03-31,24809.35,26616.71,23360.29,24103.11,7702275392
2018-06-30,24076.6,25402.83,23344.52,24271.41,6771648376
2018-09-30,24161.53,26769.16,24077.56,26458.31,5173924948
2018-12-31,26598.36,26951.81,21712.53,23327.46,7249251476
2019-03-31,23058.61,26241.42,22638.41,26026.32,3759149205
